<?xml version="1.0" encoding="UTF-8" standalone="no"?>
<svg
   xmlns:dc="http://purl.org/dc/elements/1.1/"
   xmlns:cc="http://creativecommons.org/ns#"
   xmlns:rdf="http://www.w3.org/1999/02/22-rdf-syntax-ns#"
   xmlns:svg="http://www.w3.org/2000/svg"
   xmlns="http://www.w3.org/2000/svg"
   xmlns:sodipodi="http://sodipodi.sourceforge.net/DTD/sodipodi-0.dtd"
   xmlns:inkscape="http://www.inkscape.org/namespaces/inkscape"
   height="24"
   viewBox="0 0 24 24"
   width="24"
   version="1.1"
   id="svg6"
   sodipodi:docname="validpolygone (copie).svg"
   inkscape:version="0.92.4 (5da689c313, 2019-01-14)">
  <metadata
     id="metadata12">
    <rdf:RDF>
      <cc:Work
         rdf:about="">
        <dc:format>image/svg+xml</dc:format>
        <dc:type
           rdf:resource="http://purl.org/dc/dcmitype/StillImage" />
      </cc:Work>
    </rdf:RDF>
  </metadata>
  <defs
     id="defs10" />
  <sodipodi:namedview
     pagecolor="#ffffff"
     bordercolor="#666666"
     borderopacity="1"
     objecttolerance="10"
     gridtolerance="10"
     guidetolerance="10"
     inkscape:pageopacity="0"
     inkscape:pageshadow="2"
     inkscape:window-width="1600"
     inkscape:window-height="820"
     id="namedview8"
     showgrid="false"
     inkscape:zoom="9.8333333"
     inkscape:cx="12"
     inkscape:cy="12"
     inkscape:window-x="0"
     inkscape:window-y="0"
     inkscape:window-maximized="1"
     inkscape:current-layer="svg6" />
  <path
     d="M0 0h24v24H0z"
     fill="none"
     id="path2" />
  <path
     id="path4"
     d="m 19.443359,1.6074219 c -0.294783,-0.020088 -0.590417,0.01162 -0.849609,0.1035156 L 11.134766,4.3554688 C 10.098,4.7230495 1.8058886,6.6834026 1.7109375,7.7792969 l -1.21875,14.0859371 0.7109375,1.47461 c 0.478224,0.990607 6.611128,-3.509453 7.6953125,-3.695313 l 5.9316405,-1.017578 c 1.084185,-0.185861 2.551416,-0.931912 2.814453,-2 L 21,3 C 21.197278,2.1989341 20.327711,1.6676859 19.443359,1.6074219 Z M 19.203125,3.2890625 15.236328,16.746094 8.6953125,17.660156 2.390625,21.050781 2.796875,9.2890625 c 6.2461859,-2.5907728 10.592438,-4.5615421 16.40625,-6 z M 5.8144531,14.357422 c -0.00344,0.01635 -0.00729,0.0326 -0.00977,0.04883 0.00837,0.0053 0.017338,0.01128 0.025391,0.01563 0.00542,0.0029 -0.00568,0.0036 -0.017578,0.0039 -0.00132,-4e-4 -0.00304,3.69e-4 -0.00391,0 -0.0047,1.29e-4 -0.00601,-4.21e-4 -0.00781,0 -1.526e-4,0.0012 1.449e-4,0.0027 0,0.0039 0.00951,0.0034 0.019662,0.0048 0.029297,0.0078 0.00719,-4.67e-4 0.03055,-0.0018 0.035156,-0.002 0.010399,-9.4e-5 0.020852,4.6e-5 0.03125,0 -0.026916,-0.02678 -0.054648,-0.05209 -0.082031,-0.07813 z" />
</svg>
